<svg width="17" height="16" viewBox="0 0 17 16" fill="none" xmlns="http://www.w3.org/2000/svg">
<mask id="mask0_851_7979" style="mask-type:luminance" maskUnits="userSpaceOnUse" x="2" y="0" width="12" height="16">
<path d="M2.62891 0.125H13.9414V15.875H2.62891V0.125Z" fill="white"/>
</mask>
<g mask="url(#mask0_851_7979)">
<path fill-rule="evenodd" clip-rule="evenodd" d="M2.91626 8.5881C2.94126 9.0256 3.37876 8.8256 3.57876 8.6881C3.76626 8.5506 3.82876 8.6631 3.84126 8.4006C3.85376 8.2256 3.86626 8.0631 3.86626 7.8881C3.57876 7.8631 3.26626 7.9256 3.02876 8.1006C2.91626 8.1881 2.67876 8.4756 2.91626 8.5881Z" fill="#F6D2A2"/>
</g>
<mask id="mask1_851_7979" style="mask-type:luminance" maskUnits="userSpaceOnUse" x="2" y="0" width="12" height="16">
<path d="M2.62891 0.125H13.9414V15.875H2.62891V0.125Z" fill="white"/>
</mask>
<g mask="url(#mask1_851_7979)">
<path d="M3.154 8.89961C3.0665 8.89961 2.904 8.86211 2.879 8.61211C2.804 8.56211 2.779 8.49961 2.779 8.46211C2.7665 8.31211 2.929 8.13711 3.0165 8.07461C3.2165 7.92461 3.479 7.84961 3.754 7.84961H3.9165V7.88711C3.929 8.02461 3.9165 8.16211 3.904 8.28711C3.904 8.32461 3.904 8.36211 3.8915 8.39961C3.879 8.58711 3.8415 8.61211 3.754 8.64961C3.7165 8.66211 3.679 8.67461 3.6165 8.72461C3.554 8.76211 3.3415 8.89961 3.154 8.89961ZM3.754 7.92461C3.4915 7.92461 3.254 7.99961 3.0665 8.13711C2.979 8.19961 2.854 8.34961 2.8665 8.44961C2.8665 8.48711 2.8915 8.52461 2.9415 8.54961L2.9665 8.56211V8.58711C2.979 8.78711 3.079 8.81211 3.154 8.81211C3.279 8.81211 3.454 8.72461 3.5665 8.64961C3.6415 8.59961 3.6915 8.58711 3.729 8.57461C3.7915 8.54961 3.804 8.54961 3.8165 8.39961C3.8165 8.36211 3.8165 8.32461 3.829 8.28711C3.8415 8.17461 3.8415 8.04961 3.8415 7.93711C3.804 7.92461 3.779 7.92461 3.754 7.92461Z" fill="black"/>
</g>
<mask id="mask2_851_7979" style="mask-type:luminance" maskUnits="userSpaceOnUse" x="2" y="0" width="12" height="16">
<path d="M2.62891 0.125H13.9414V15.875H2.62891V0.125Z" fill="white"/>
</mask>
<g mask="url(#mask2_851_7979)">
<path fill-rule="evenodd" clip-rule="evenodd" d="M2.91602 8.58828C2.97852 8.56328 3.05352 8.55078 3.09102 8.48828L2.91602 8.58828Z" fill="#C6B198"/>
</g>
<mask id="mask3_851_7979" style="mask-type:luminance" maskUnits="userSpaceOnUse" x="2" y="0" width="12" height="16">
<path d="M2.62891 0.125H13.9414V15.875H2.62891V0.125Z" fill="white"/>
</mask>
<g mask="url(#mask3_851_7979)">
<path d="M2.91643 8.62549C2.90393 8.62549 2.87893 8.61299 2.87893 8.60049C2.86643 8.57549 2.87893 8.55049 2.90393 8.55049C2.91643 8.55049 2.92893 8.53799 2.92893 8.53799C2.97893 8.51299 3.02893 8.50049 3.05393 8.46299C3.06643 8.45049 3.09143 8.43799 3.11643 8.45049C3.12893 8.46299 3.14143 8.48799 3.12893 8.51299C3.07893 8.57549 3.01643 8.60049 2.96643 8.61299L2.94143 8.62549H2.91643Z" fill="black"/>
</g>
<mask id="mask4_851_7979" style="mask-type:luminance" maskUnits="userSpaceOnUse" x="2" y="0" width="12" height="16">
<path d="M2.62891 0.125H13.9414V15.875H2.62891V0.125Z" fill="white"/>
</mask>
<g mask="url(#mask4_851_7979)">
<path fill-rule="evenodd" clip-rule="evenodd" d="M3.94128 3.29941C2.24128 2.82441 3.50378 0.661909 4.86628 1.54941L3.94128 3.29941Z" fill="#6AD7E5"/>
</g>
<mask id="mask5_851_7979" style="mask-type:luminance" maskUnits="userSpaceOnUse" x="2" y="0" width="12" height="16">
<path d="M2.62891 0.125H13.9414V15.875H2.62891V0.125Z" fill="white"/>
</mask>
<g mask="url(#mask5_851_7979)">
<path d="M3.96645 3.35078L3.92895 3.33828C3.05395 3.08828 3.06645 2.46328 3.09145 2.27578C3.15395 1.80078 3.60395 1.30078 4.20395 1.30078C4.44145 1.30078 4.66645 1.37578 4.89145 1.52578L4.92895 1.55078L3.96645 3.35078ZM4.20395 1.38828C3.64145 1.38828 3.22895 1.85078 3.16645 2.28828C3.10395 2.73828 3.37895 3.08828 3.91645 3.25078L4.80395 1.56328C4.61645 1.45078 4.41645 1.38828 4.20395 1.38828Z" fill="black"/>
</g>
<mask id="mask6_851_7979" style="mask-type:luminance" maskUnits="userSpaceOnUse" x="2" y="0" width="12" height="16">
<path d="M2.62891 0.125H13.9414V15.875H2.62891V0.125Z" fill="white"/>
</mask>
<g mask="url(#mask6_851_7979)">
<path fill-rule="evenodd" clip-rule="evenodd" d="M11.4785 1.38811C12.816 0.450607 14.041 2.57561 12.4785 3.11311L11.4785 1.38811Z" fill="#6AD7E5"/>
</g>
<mask id="mask7_851_7979" style="mask-type:luminance" maskUnits="userSpaceOnUse" x="2" y="0" width="12" height="16">
<path d="M2.62891 0.125H13.9414V15.875H2.62891V0.125Z" fill="white"/>
</mask>
<g mask="url(#mask7_851_7979)">
<path d="M12.4662 3.16211L11.4287 1.37461L11.4662 1.34961C11.7037 1.18711 11.9412 1.09961 12.1787 1.09961C12.7537 1.09961 13.1662 1.57461 13.2537 2.03711C13.2912 2.22461 13.3287 2.86211 12.5037 3.13711L12.4662 3.16211ZM11.5412 1.41211L12.5037 3.07461C12.9912 2.89961 13.2412 2.52461 13.1662 2.07461C13.0912 1.64961 12.7037 1.21211 12.1787 1.21211C11.9662 1.19961 11.7537 1.26211 11.5412 1.41211Z" fill="black"/>
</g>
<mask id="mask8_851_7979" style="mask-type:luminance" maskUnits="userSpaceOnUse" x="2" y="0" width="12" height="16">
<path d="M2.62891 0.125H13.9414V15.875H2.62891V0.125Z" fill="white"/>
</mask>
<g mask="url(#mask8_851_7979)">
<path fill-rule="evenodd" clip-rule="evenodd" d="M11.7793 14.0371C12.1168 14.2496 12.7418 14.8871 12.2293 15.1996C11.7418 15.6496 11.4668 14.6996 11.0293 14.5746C11.2168 14.3246 11.4543 14.0871 11.7793 14.0371Z" fill="#F6D2A2"/>
</g>
<mask id="mask9_851_7979" style="mask-type:luminance" maskUnits="userSpaceOnUse" x="2" y="0" width="12" height="16">
<path d="M2.62891 0.125H13.9414V15.875H2.62891V0.125Z" fill="white"/>
</mask>
<g mask="url(#mask9_851_7979)">
<path d="M11.9666 15.3625C11.7666 15.3625 11.5916 15.1625 11.4416 14.975C11.3041 14.825 11.1666 14.6625 11.0166 14.6125L10.9541 14.6L10.9916 14.55C11.1416 14.3375 11.3916 14.0625 11.7666 14H11.7791L11.7916 14.0125C12.0041 14.15 12.4666 14.5375 12.4541 14.9C12.4541 15.0375 12.3791 15.15 12.2416 15.2375C12.1541 15.325 12.0666 15.3625 11.9666 15.3625ZM11.0916 14.55C11.2416 14.6125 11.3666 14.775 11.4916 14.9125C11.6416 15.1 11.7916 15.2625 11.9541 15.2625C12.0291 15.2625 12.1041 15.225 12.1791 15.15H12.1916C12.3041 15.075 12.3666 14.9875 12.3666 14.875C12.3666 14.5875 12.0041 14.225 11.7541 14.0625C11.5291 14.125 11.3041 14.275 11.0916 14.55ZM12.2291 15.2375C12.2166 15.2375 12.2041 15.225 12.1916 15.2125C12.1666 15.1625 12.1416 15.1 12.1291 15.05C12.0916 14.95 12.0541 14.85 11.9791 14.775C11.9666 14.7625 11.9666 14.7375 11.9791 14.7125C11.9916 14.7 12.0166 14.7 12.0416 14.7125C12.1291 14.8 12.1791 14.9125 12.2166 15.025L12.2791 15.175C12.2916 15.2 12.2791 15.225 12.2666 15.2375H12.2291Z" fill="black"/>
</g>
<mask id="mask10_851_7979" style="mask-type:luminance" maskUnits="userSpaceOnUse" x="2" y="0" width="12" height="16">
<path d="M2.62891 0.125H13.9414V15.875H2.62891V0.125Z" fill="white"/>
</mask>
<g mask="url(#mask10_851_7979)">
<path fill-rule="evenodd" clip-rule="evenodd" d="M5.67877 14.7634C5.27877 14.8259 5.05377 15.1884 4.71627 15.3759C4.40377 15.5634 4.27877 15.3134 4.25377 15.2634C4.20377 15.2384 4.20377 15.2884 4.12877 15.2134C3.84127 14.7509 4.42877 14.4134 4.74127 14.1884C5.17877 14.0884 5.45377 14.4634 5.67877 14.7634Z" fill="#F6D2A2"/>
</g>
<mask id="mask11_851_7979" style="mask-type:luminance" maskUnits="userSpaceOnUse" x="2" y="0" width="12" height="16">
<path d="M2.62891 0.125H13.9414V15.875H2.62891V0.125Z" fill="white"/>
</mask>
<g mask="url(#mask11_851_7979)">
<path d="M4.50396 15.475C4.34146 15.475 4.25396 15.3375 4.22896 15.2875H4.21646C4.17896 15.2875 4.15396 15.275 4.10396 15.225V15.2125C3.82896 14.775 4.30396 14.4375 4.61646 14.2125L4.72896 14.1375H4.75396C4.80396 14.125 4.84146 14.125 4.89146 14.125C5.26646 14.125 5.50396 14.45 5.70396 14.7125L5.76646 14.8L5.69146 14.8125C5.45396 14.85 5.27896 15 5.10396 15.15C4.99146 15.25 4.87896 15.3375 4.75396 15.4125C4.65396 15.45 4.57896 15.475 4.50396 15.475ZM4.22896 15.2125C4.24146 15.2125 4.25396 15.2125 4.27896 15.225H4.29146L4.30396 15.2375C4.32896 15.275 4.39146 15.3875 4.51646 15.3875C4.57896 15.3875 4.64146 15.3625 4.70396 15.325C4.82896 15.2625 4.94146 15.1625 5.04146 15.075C5.20396 14.9375 5.37896 14.7875 5.60396 14.725C5.41646 14.475 5.19146 14.2 4.87896 14.2C4.84146 14.2 4.80396 14.2 4.76646 14.2125L4.66646 14.2875C4.34146 14.5125 3.94146 14.8 4.17896 15.175C4.19146 15.2 4.20396 15.2125 4.22896 15.2125ZM4.25396 15.3C4.22896 15.3 4.20396 15.275 4.21646 15.25C4.22896 15.125 4.29146 15.0375 4.35396 14.9375C4.39146 14.8875 4.41646 14.8375 4.44146 14.7875C4.45396 14.7625 4.47896 14.7625 4.49146 14.7625C4.51646 14.775 4.51646 14.8 4.51646 14.8125C4.49146 14.875 4.45396 14.925 4.41646 14.975C4.35396 15.0625 4.30396 15.1375 4.29146 15.2375C4.29146 15.2875 4.27896 15.3 4.25396 15.3Z" fill="black"/>
</g>
<mask id="mask12_851_7979" style="mask-type:luminance" maskUnits="userSpaceOnUse" x="2" y="0" width="12" height="16">
<path d="M2.62891 0.125H13.9414V15.875H2.62891V0.125Z" fill="white"/>
</mask>
<g mask="url(#mask12_851_7979)">
<path fill-rule="evenodd" clip-rule="evenodd" d="M4.01642 2.71286C3.79142 2.60036 3.62892 2.43786 3.76642 2.17536C3.89142 1.93786 4.12892 1.96286 4.35392 2.07536L4.01642 2.71286ZM12.1289 2.48786C12.3539 2.37536 12.5164 2.21286 12.3789 1.95036C12.2539 1.71286 12.0164 1.73786 11.7914 1.85036L12.1289 2.48786Z" fill="black"/>
</g>
<mask id="mask13_851_7979" style="mask-type:luminance" maskUnits="userSpaceOnUse" x="2" y="0" width="12" height="16">
<path d="M2.62891 0.125H13.9414V15.875H2.62891V0.125Z" fill="white"/>
</mask>
<g mask="url(#mask13_851_7979)">
<path fill-rule="evenodd" clip-rule="evenodd" d="M13.6668 8.5256C13.6418 8.9631 13.2043 8.7631 13.0043 8.6256C12.8168 8.4881 12.7543 8.6006 12.7418 8.3381C12.7293 8.1631 12.7168 8.0006 12.7168 7.8256C13.0043 7.8006 13.3168 7.8631 13.5543 8.0381C13.6793 8.1381 13.9043 8.4131 13.6668 8.5256Z" fill="#F6D2A2"/>
</g>
<mask id="mask14_851_7979" style="mask-type:luminance" maskUnits="userSpaceOnUse" x="2" y="0" width="12" height="16">
<path d="M2.62891 0.125H13.9414V15.875H2.62891V0.125Z" fill="white"/>
</mask>
<g mask="url(#mask14_851_7979)">
<path d="M13.4415 8.83711C13.254 8.83711 13.0415 8.69961 12.979 8.66211C12.9165 8.62461 12.879 8.59961 12.8415 8.58711C12.7415 8.54961 12.7165 8.52461 12.704 8.33711C12.704 8.29961 12.704 8.26211 12.6915 8.22461C12.679 8.09961 12.6665 7.96211 12.679 7.82461V7.78711H12.8415C13.1165 7.78711 13.379 7.86211 13.579 8.01211C13.6665 8.07461 13.829 8.24961 13.8165 8.39961C13.8165 8.44961 13.7915 8.51211 13.7165 8.54961C13.6915 8.79961 13.529 8.83711 13.4415 8.83711ZM12.754 7.87461C12.754 7.98711 12.754 8.11211 12.7665 8.22461C12.7665 8.26211 12.7665 8.29961 12.779 8.33711C12.7915 8.48711 12.804 8.48711 12.8665 8.51211C12.904 8.52461 12.954 8.54961 13.029 8.58711C13.1415 8.66211 13.3165 8.74961 13.4415 8.74961C13.5165 8.74961 13.6165 8.72461 13.629 8.52461V8.49961L13.654 8.48711C13.704 8.46211 13.729 8.43711 13.729 8.38711C13.7415 8.28711 13.6165 8.13711 13.529 8.07461C13.3415 7.93711 13.0915 7.86211 12.8415 7.86211C12.8165 7.87461 12.7915 7.87461 12.754 7.87461Z" fill="black"/>
</g>
<mask id="mask15_851_7979" style="mask-type:luminance" maskUnits="userSpaceOnUse" x="2" y="0" width="12" height="16">
<path d="M2.62891 0.125H13.9414V15.875H2.62891V0.125Z" fill="white"/>
</mask>
<g mask="url(#mask15_851_7979)">
<path fill-rule="evenodd" clip-rule="evenodd" d="M13.6662 8.52578C13.6037 8.50078 13.5287 8.48828 13.4912 8.42578L13.6662 8.52578Z" fill="#C6B198"/>
</g>
<mask id="mask16_851_7979" style="mask-type:luminance" maskUnits="userSpaceOnUse" x="2" y="0" width="12" height="16">
<path d="M2.62891 0.125H13.9414V15.875H2.62891V0.125Z" fill="white"/>
</mask>
<g mask="url(#mask16_851_7979)">
<path d="M13.6662 8.57579H13.6537L13.6287 8.56329C13.5662 8.53829 13.5037 8.52579 13.4662 8.46329C13.4537 8.45079 13.4537 8.41329 13.4787 8.40079C13.4912 8.38829 13.5287 8.38829 13.5412 8.41329C13.5662 8.45079 13.6162 8.46329 13.6662 8.48829C13.6787 8.48829 13.6912 8.50079 13.6912 8.50079C13.7162 8.51329 13.7287 8.53829 13.7162 8.55079C13.7037 8.56329 13.6787 8.57579 13.6662 8.57579Z" fill="black"/>
</g>
<mask id="mask17_851_7979" style="mask-type:luminance" maskUnits="userSpaceOnUse" x="2" y="0" width="12" height="16">
<path d="M2.62891 0.125H13.9414V15.875H2.62891V0.125Z" fill="white"/>
</mask>
<g mask="url(#mask17_851_7979)">
<path fill-rule="evenodd" clip-rule="evenodd" d="M8.12892 0.5C9.82892 0.5 11.4164 0.7375 12.2539 2.375C13.0039 4.2 12.7289 6.175 12.8539 8.1125C12.9539 9.775 13.1664 11.6875 12.4039 13.225C11.5914 14.8375 9.56642 15.25 7.90392 15.1875C6.59142 15.1375 5.01642 14.7125 4.26642 13.5125C3.40392 12.1125 3.80392 10.025 3.86642 8.4625C3.94142 6.6125 3.36642 4.75 3.97892 2.95C4.59142 1.0625 6.29142 0.6375 8.12892 0.5Z" fill="#6AD7E5"/>
</g>
<mask id="mask18_851_7979" style="mask-type:luminance" maskUnits="userSpaceOnUse" x="2" y="0" width="12" height="16">
<path d="M2.62891 0.125H13.9414V15.875H2.62891V0.125Z" fill="white"/>
</mask>
<g mask="url(#mask18_851_7979)">
<path d="M8.19156 15.2383H7.87906C7.36656 15.2258 6.59156 15.1383 5.82906 14.8258C5.09156 14.5258 4.55406 14.1008 4.20406 13.5383C3.50406 12.4008 3.62906 10.8383 3.74156 9.45084C3.76656 9.10084 3.79156 8.77584 3.80406 8.46334C3.82906 7.81334 3.77906 7.13834 3.71656 6.50084C3.61656 5.32584 3.51656 4.11334 3.90406 2.93834C4.20406 2.06334 4.74156 1.43834 5.55406 1.03834C6.19156 0.725842 6.97906 0.550842 8.10406 0.463342C9.77906 0.450842 11.4416 0.688342 12.2791 2.35084C12.8291 3.68834 12.8291 5.12584 12.8416 6.51334C12.8416 7.03834 12.8416 7.57584 12.8791 8.10084C12.8916 8.26334 12.9041 8.42584 12.9041 8.58834C13.0041 10.1133 13.1166 11.8383 12.4166 13.2383C12.0666 13.9508 11.4541 14.4758 10.6166 14.8133C9.94156 15.0883 9.09156 15.2383 8.19156 15.2383ZM8.12906 0.538342C6.36656 0.675842 4.64156 1.06334 4.00406 2.96334C3.61656 4.12584 3.71656 5.32584 3.81656 6.48834C3.86656 7.13834 3.92906 7.80084 3.90406 8.46334C3.89156 8.77584 3.86656 9.10084 3.84156 9.45084C3.72906 10.8258 3.60406 12.3758 4.29156 13.4883C4.57906 13.9508 5.50406 15.0508 7.89156 15.1383H8.20406C10.9666 15.1383 11.9916 13.9133 12.3666 13.1883C13.0541 11.8133 12.9416 10.0883 12.8541 8.57584C12.8416 8.41334 12.8291 8.25084 12.8291 8.08834C12.8041 7.56334 12.7916 7.02584 12.7916 6.50084C12.7791 5.12584 12.7791 3.68834 12.2416 2.36334C11.8666 1.62584 11.3041 1.12584 10.5291 0.838342C9.72906 0.575842 8.82906 0.538342 8.12906 0.538342Z" fill="black"/>
</g>
<mask id="mask19_851_7979" style="mask-type:luminance" maskUnits="userSpaceOnUse" x="2" y="0" width="12" height="16">
<path d="M2.62891 0.125H13.9414V15.875H2.62891V0.125Z" fill="white"/>
</mask>
<g mask="url(#mask19_851_7979)">
<path fill-rule="evenodd" clip-rule="evenodd" d="M8.42869 2.77591C8.72869 4.55091 11.6287 4.07591 11.2162 2.28841C10.8412 0.688414 8.32869 1.13841 8.42869 2.77591Z" fill="white"/>
</g>
<mask id="mask20_851_7979" style="mask-type:luminance" maskUnits="userSpaceOnUse" x="2" y="0" width="12" height="16">
<path d="M2.62891 0.125H13.9414V15.875H2.62891V0.125Z" fill="white"/>
</mask>
<g mask="url(#mask20_851_7979)">
<path d="M9.80411 3.93672C9.24161 3.93672 8.52911 3.63672 8.37911 2.78672C8.35411 2.38672 8.47911 2.02422 8.74161 1.74922C9.02911 1.43672 9.46661 1.26172 9.91661 1.26172C10.4416 1.26172 11.0666 1.53672 11.2416 2.29922C11.3416 2.72422 11.2666 3.09922 11.0291 3.39922C10.7666 3.72422 10.3041 3.93672 9.80411 3.93672ZM8.46661 2.77422C8.52911 3.12422 8.69161 3.39922 8.95411 3.59922C9.17911 3.77422 9.49161 3.86172 9.80411 3.86172C10.2666 3.86172 10.7166 3.66172 10.9666 3.34922C11.1916 3.07422 11.2541 2.71172 11.1666 2.31172C11.0041 1.59922 10.4166 1.34922 9.91661 1.34922C9.49161 1.34922 9.07911 1.52422 8.80411 1.81172C8.56661 2.06172 8.44161 2.39922 8.46661 2.77422Z" fill="black"/>
</g>
<mask id="mask21_851_7979" style="mask-type:luminance" maskUnits="userSpaceOnUse" x="2" y="0" width="12" height="16">
<path d="M2.62891 0.125H13.9414V15.875H2.62891V0.125Z" fill="white"/>
</mask>
<g mask="url(#mask21_851_7979)">
<path fill-rule="evenodd" clip-rule="evenodd" d="M4.96662 3.06164C5.36662 4.59914 7.82912 4.21164 7.74162 2.66164C7.62912 0.811638 4.57912 1.16164 4.96662 3.06164Z" fill="white"/>
</g>
<mask id="mask22_851_7979" style="mask-type:luminance" maskUnits="userSpaceOnUse" x="2" y="0" width="12" height="16">
<path d="M2.62891 0.125H13.9414V15.875H2.62891V0.125Z" fill="white"/>
</mask>
<g mask="url(#mask22_851_7979)">
<path d="M6.2793 4.08789C5.7418 4.08789 5.1168 3.82539 4.9168 3.07539C4.8293 2.63789 4.9168 2.23789 5.1668 1.93789C5.4418 1.60039 5.8918 1.40039 6.3793 1.40039C7.0293 1.40039 7.7168 1.78789 7.7668 2.66289C7.7918 3.02539 7.6793 3.35039 7.4293 3.61289C7.1668 3.90039 6.7293 4.08789 6.2793 4.08789ZM6.3793 1.48789C5.9168 1.48789 5.4918 1.67539 5.2293 1.98789C4.9918 2.27539 4.9168 2.63789 5.0043 3.05039C5.1793 3.75039 5.7793 4.00039 6.2793 4.00039C6.7043 4.00039 7.1168 3.83789 7.3793 3.55039C7.6043 3.31289 7.7168 3.00039 7.6918 2.66289C7.6668 2.12539 7.3043 1.48789 6.3793 1.48789Z" fill="black"/>
</g>
<mask id="mask23_851_7979" style="mask-type:luminance" maskUnits="userSpaceOnUse" x="2" y="0" width="12" height="16">
<path d="M2.62891 0.125H13.9414V15.875H2.62891V0.125Z" fill="white"/>
</mask>
<g mask="url(#mask23_851_7979)">
<path fill-rule="evenodd" clip-rule="evenodd" d="M8.77913 4.90078C8.77913 5.12578 8.82913 5.38828 8.79163 5.63828C8.72913 5.75078 8.61663 5.76328 8.51663 5.80078C8.37913 5.77578 8.26663 5.68828 8.20413 5.56328C8.16663 5.28828 8.21663 5.01328 8.22913 4.73828L8.77913 4.90078Z" fill="white"/>
</g>
<mask id="mask24_851_7979" style="mask-type:luminance" maskUnits="userSpaceOnUse" x="2" y="0" width="12" height="16">
<path d="M2.62891 0.125H13.9414V15.875H2.62891V0.125Z" fill="white"/>
</mask>
<g mask="url(#mask24_851_7979)">
<path d="M8.51678 5.84922C8.35428 5.82422 8.22928 5.72422 8.16678 5.58672C8.14178 5.38672 8.15428 5.19922 8.16678 5.01172C8.17928 4.92422 8.17928 4.83672 8.17928 4.74922V4.69922L8.81678 4.89922V4.92422C8.81678 4.99922 8.82928 5.07422 8.82928 5.16172C8.84178 5.32422 8.85428 5.49922 8.82928 5.66172V5.67422C8.77928 5.77422 8.69178 5.79922 8.60428 5.83672C8.57928 5.82422 8.55428 5.83672 8.51678 5.84922ZM8.24178 5.54922C8.29178 5.66172 8.39178 5.73672 8.50428 5.76172C8.52928 5.74922 8.55428 5.74922 8.56678 5.73672C8.64178 5.71172 8.70428 5.68672 8.74178 5.62422C8.76678 5.47422 8.75428 5.31172 8.74178 5.14922C8.74178 5.07422 8.72928 4.99922 8.72928 4.93672L8.25428 4.78672C8.25428 4.86172 8.24178 4.93672 8.24178 4.99922C8.22928 5.19922 8.21678 5.37422 8.24178 5.54922Z" fill="black"/>
</g>
<mask id="mask25_851_7979" style="mask-type:luminance" maskUnits="userSpaceOnUse" x="2" y="0" width="12" height="16">
<path d="M2.62891 0.125H13.9414V15.875H2.62891V0.125Z" fill="white"/>
</mask>
<g mask="url(#mask25_851_7979)">
<path fill-rule="evenodd" clip-rule="evenodd" d="M6.06621 2.81328C6.06621 3.06328 5.87871 3.26328 5.65371 3.26328C5.42871 3.26328 5.24121 3.06328 5.24121 2.81328C5.24121 2.56328 5.42871 2.36328 5.65371 2.36328C5.87871 2.36328 6.06621 2.56328 6.06621 2.81328Z" fill="black"/>
</g>
<mask id="mask26_851_7979" style="mask-type:luminance" maskUnits="userSpaceOnUse" x="2" y="0" width="12" height="16">
<path d="M2.62891 0.125H13.9414V15.875H2.62891V0.125Z" fill="white"/>
</mask>
<g mask="url(#mask26_851_7979)">
<path fill-rule="evenodd" clip-rule="evenodd" d="M5.92852 2.91328C5.92852 2.97578 5.87852 3.02578 5.82852 3.02578C5.77852 3.02578 5.72852 2.97578 5.72852 2.91328C5.72852 2.85078 5.77852 2.80078 5.82852 2.80078C5.89102 2.80078 5.92852 2.85078 5.92852 2.91328Z" fill="white"/>
</g>
<mask id="mask27_851_7979" style="mask-type:luminance" maskUnits="userSpaceOnUse" x="2" y="0" width="12" height="16">
<path d="M2.62891 0.125H13.9414V15.875H2.62891V0.125Z" fill="white"/>
</mask>
<g mask="url(#mask27_851_7979)">
<path fill-rule="evenodd" clip-rule="evenodd" d="M9.55352 2.7C9.55352 2.95 9.36602 3.15 9.14102 3.15C8.91602 3.15 8.72852 2.95 8.72852 2.7C8.72852 2.45 8.91602 2.25 9.14102 2.25C9.36602 2.25 9.55352 2.45 9.55352 2.7Z" fill="black"/>
</g>
<mask id="mask28_851_7979" style="mask-type:luminance" maskUnits="userSpaceOnUse" x="2" y="0" width="12" height="16">
<path d="M2.62891 0.125H13.9414V15.875H2.62891V0.125Z" fill="white"/>
</mask>
<g mask="url(#mask28_851_7979)">
<path fill-rule="evenodd" clip-rule="evenodd" d="M9.4292 2.8C9.4292 2.8625 9.3917 2.9125 9.3292 2.9125C9.2792 2.9125 9.2292 2.8625 9.2292 2.8C9.2292 2.7375 9.2667 2.6875 9.3292 2.6875C9.3792 2.6875 9.4292 2.7375 9.4292 2.8ZM7.5792 4.875C7.3917 5.3125 7.6792 6.2 8.1792 5.55C8.1417 5.275 8.1917 5 8.2042 4.725L7.5792 4.875Z" fill="white"/>
</g>
<mask id="mask29_851_7979" style="mask-type:luminance" maskUnits="userSpaceOnUse" x="2" y="0" width="12" height="16">
<path d="M2.62891 0.125H13.9414V15.875H2.62891V0.125Z" fill="white"/>
</mask>
<g mask="url(#mask29_851_7979)">
<path d="M7.84129 5.82461C7.75379 5.82461 7.66629 5.77461 7.60379 5.67461C7.46629 5.47461 7.44129 5.09961 7.54129 4.86211L7.55379 4.83711L8.24129 4.66211V4.71211L8.22879 4.98711C8.21629 5.17461 8.20379 5.34961 8.22879 5.53711V5.54961L8.21629 5.56211C8.09129 5.73711 7.96629 5.82461 7.84129 5.82461ZM7.61629 4.91211C7.54129 5.12461 7.56629 5.46211 7.67879 5.62461C7.72879 5.69961 7.77879 5.73711 7.84129 5.73711C7.92879 5.73711 8.02879 5.66211 8.12879 5.53711C8.10379 5.34961 8.11629 5.16211 8.14129 4.98711L8.15379 4.77461L7.61629 4.91211Z" fill="black"/>
</g>
<mask id="mask30_851_7979" style="mask-type:luminance" maskUnits="userSpaceOnUse" x="2" y="0" width="12" height="16">
<path d="M2.62891 0.125H13.9414V15.875H2.62891V0.125Z" fill="white"/>
</mask>
<g mask="url(#mask30_851_7979)">
<path fill-rule="evenodd" clip-rule="evenodd" d="M7.64124 4.02461C7.30374 4.04961 7.02874 4.46211 7.20374 4.77461C7.44124 5.19961 7.95374 4.73711 8.27874 4.77461C8.65374 4.78711 8.95374 5.17461 9.25374 4.84961C9.59124 4.48711 9.10374 4.13711 8.74124 3.97461L7.64124 4.02461Z" fill="#F6D2A2"/>
</g>
<mask id="mask31_851_7979" style="mask-type:luminance" maskUnits="userSpaceOnUse" x="2" y="0" width="12" height="16">
<path d="M2.62891 0.125H13.9414V15.875H2.62891V0.125Z" fill="white"/>
</mask>
<g mask="url(#mask31_851_7979)">
<path d="M8.99115 5.025C8.87865 5.025 8.76615 4.975 8.65365 4.925C8.54115 4.875 8.41615 4.825 8.27865 4.825H8.24115C8.14115 4.825 8.02865 4.8625 7.90365 4.9125C7.76615 4.9625 7.62865 5 7.50365 5C7.35365 5 7.24115 4.9375 7.16615 4.8C7.07865 4.65 7.09115 4.475 7.17865 4.3125C7.27865 4.125 7.45365 4.0125 7.64115 3.9875L8.75365 3.9375H8.76615C9.04115 4.05 9.35365 4.2625 9.41615 4.5125C9.44115 4.6375 9.40365 4.7625 9.30365 4.875C9.20365 4.9875 9.10365 5.025 8.99115 5.025ZM8.29115 4.75C8.42865 4.75 8.56615 4.8125 8.69115 4.8625C8.80365 4.9125 8.90365 4.95 9.00365 4.95C9.09115 4.95 9.16615 4.9125 9.24115 4.8375C9.32865 4.75 9.35365 4.65 9.34115 4.55C9.29115 4.3375 8.99115 4.1375 8.75365 4.0375L7.66615 4.0875C7.50365 4.1 7.35365 4.2125 7.26615 4.3625C7.19115 4.5 7.19115 4.65 7.25365 4.775C7.31615 4.8875 7.39115 4.9375 7.51615 4.9375C7.62865 4.9375 7.75365 4.8875 7.87865 4.85C8.01615 4.8 8.12865 4.7625 8.25365 4.7625C8.25365 4.7375 8.26615 4.7375 8.29115 4.75Z" fill="#231F20"/>
</g>
<mask id="mask32_851_7979" style="mask-type:luminance" maskUnits="userSpaceOnUse" x="2" y="0" width="12" height="16">
<path d="M2.62891 0.125H13.9414V15.875H2.62891V0.125Z" fill="white"/>
</mask>
<g mask="url(#mask32_851_7979)">
<path fill-rule="evenodd" clip-rule="evenodd" d="M7.60393 4.01169C7.57893 3.42419 8.70393 3.34919 8.82893 3.83669C8.96643 4.33669 7.65393 4.44919 7.60393 4.01169Z" fill="black"/>
</g>
</svg>
